Data – Team PETRA’ Project Lab
…
# This file contains poverty line in 2019- 2020 and also it contains this data in term of reagions:
library(readxl)

poverty_rate_19_20 <- read_excel("C:/Users/Necati/Desktop/Poverty Rate 2020-2019.xlsx")

str(poverty_rate_19_20)

tibble [26 × 3] (S3: tbl_df/tbl/data.frame)
 $ Region_Number  : chr [1:26] "TR10" "TR21" "TR22" "TR31" ...
 $ Poverty Rate_20: num [1:26] 11 11 16 11 12 9 9 9 10 13 ...
 $ Poverty Rate_19: num [1:26] 11 13 12 11 13 9 8 9 10 10 ...

print(poverty_rate_19_20)

# A tibble: 26 × 3
   Region_Number `Poverty Rate_20` `Poverty Rate_19`
   <chr>                     <dbl>             <dbl>
 1 TR10                         11                11
 2 TR21                         11                13
 3 TR22                         16                12
 4 TR31                         11                11
 5 TR32                         12                13
 6 TR33                          9                 9
 7 TR41                          9                 8
 8 TR42                          9                 9
 9 TR51                         10                10
10 TR52                         13                10
# ℹ 16 more rows
…
